[
    {"name": "A Hoop Science", "url": "https://www.etsy.com/shop/ahoopscience", "location": "US", "shipsTo": "US", "hoopType": ["Day"]},
    {"name": "Astral Hoops", "url": "https://shop.astralhoops.com/", "location": "US", "shipsTo": "World", "hoopType": ["LED"]},
    {"name": "Bomb Diggity Spins", "url": "https://www.bombdiggityspins.com/", "location": "US", "shipsTo": "US", "hoopType": ["Day"]},
    {"name": "Celestial Body Hoops", "url": "https://www.etsy.com/shop/CelestialBodyHoops", "location": "US", "shipsTo": "US", "hoopType": ["Day"]},
    {"name": "Colorado Hula Hoops", "url": "https://www.etsy.com/shop/ColoradoHulaHoops", "location": "US", "shipsTo": "World", "hoopType": ["Day"]},
    {"name": "Cosmic Vibrations", "url": "https://www.shopcosmicvibrations.com/", "location": "US", "shipsTo": "World", "hoopType": ["Day"]},
    {"name": "Divine Hoop Dance", "url": "https://www.etsy.com/shop/divinehoopdance", "location": "US", "shipsTo": "World", "hoopType": ["Day"]},
    {"name": "Flow Affinity", "url": "https://www.flowaffinity.com", "location": "US", "shipsTo": "World", "hoopType": ["Day", "Fire"]},
    {"name": "Hipnotic Hula", "url": "https://www.hipnotichoopla.com/etsy-shop", "location": "US", "shipsTo": "World", "hoopType": ["Day"]},
    {"name": "Hoola Monsters", "url": "https://www.etsy.com/shop/hoolamonsters", "location": "US", "shipsTo": "US", "hoopType": ["Day"]},
    {"name": "Hoopers Accents", "url": "https://www.etsy.com/shop/HoopersAccents", "location": "US", "shipsTo": "US", "hoopType": ["Day"]},
    {"name": "Hoop Junky", "url": "https://www.thehoopjunky.com/", "location": "US", "shipsTo": "World", "hoopType": ["Day"]},
    {"name": "The Hoop Smiths", "url": "https://thshoops.com/", "location": "US", "shipsTo": "US", "hoopType": ["Day", "LED"]},
    {"name": "Hyperion Hoop", "url": "https://www.hyperionhoop.com/shop/index.php", "location": "US", "shipsTo": "World", "hoopType": ["LED"]},
    {"name": "JAMHoops Limited", "url": "https://www.jamhoopslimited.com/", "location": "US", "shipsTo": "World", "hoopType": ["Day"]},
    {"name": "LiviJoy Hoops", "url": "https://www.etsy.com/shop/LiviJoyHoops", "location": "US", "shipsTo": "World", "hoopType": ["Day", "Fire"]},
    {"name": "MissHoopsALot", "url": "https://www.misshoopsalot.com/", "location": "US", "shipsTo": "World", "hoopType": ["Day"]},
    {"name": "MoodHoops", "url": "https://moodhoops.com/", "location": "US", "shipsTo": "World", "hoopType": ["Day", "Fire", "LED"]},
    {"name": "MoonJune Hoops", "url": "https://www.etsy.com/shop/moonjunehoops/", "location": "US", "shipsTo": "World", "hoopType": ["Day"]},
    {"name": "PopLockandHoopIt", "url": "https://www.etsy.com/shop/poplockandhoopit", "location": "US", "shipsTo": "World", "hoopType": ["Day"]},
    {"name": "Raye of Rainn", "url": "https://www.etsy.com/shop/RayeOfRainn", "location": "US", "shipsTo": "World", "hoopType": ["Day"]},
    {"name": "ShelLED Hoops", "url": "https://shelledhoops.com/", "location": "US", "shipsTo": "World", "hoopType": ["Day", "LED"]},
    {"name": "The Spinsterz", "url": "https://thespinsterz.com/", "location": "US", "shipsTo": "World", "hoopType": ["Day", "LED", "Fire"]},
    

    {"name": "Bayside Hooping", "url": "https://www.baysidehooping.com/", "location": "Australia", "shipsTo": "Australia", "hoopType": ["Day"]},
    {"name": "Mermaid Hooping", "url": "https://www.etsy.com/au/shop/MermaidHooping", "location": "Australia", "shipsTo": "World", "hoopType": ["Day"]},
    {"name": "SpinJoy", "url": "https://spinjoy.com.au/", "location": "Australia", "shipsTo": "World", "hoopType": ["Day"]},
    
    
    {"name": "Hoop Flow", "url": "https://shop.hoopflow.at/", "location": "Austria", "shipsTo": "Europe", "hoopType": ["Day"]},
    
    
    {"name": "Geo Rev Hooping", "url": "https://www.georevhooping.com/", "location": "Canada", "shipsTo": "US", "hoopType": ["Day", "Fire"]},
    {"name": "Radiant Life Hoops", "url": "https://www.radiantlifehoops.com/", "location": "Canada", "shipsTo": "Canada", "hoopType": ["Day"]},
    
    
    {"name": "Feuer Show", "url": "https://shop.feuershow.de/", "location": "Germany", "shipsTo": "Germany", "hoopType": ["Fire"]},
    {"name": "Hula Hoop De", "url": "https://www.etsy.com/de/shop/HulaHoopDE", "location": "Germany", "shipsTo": "Germany", "hoopType": ["Day"]},
    {"name": "Hula-Hoop-Shop", "url": "https://www.hula-hoop-shop.eu/", "location": "Germany", "shipsTo": "World", "hoopType": ["Fire", "Day"]},
    {"name": "Hula Hooper", "url": "https://www.hulahooper.de/", "location": "Germany", "shipsTo": "Germany", "hoopType": ["Fire", "Day"]},
    {"name": "Hula the Hoop", "url": "https://hulathehoop.de/", "location": "Germany", "shipsTo": "World", "hoopType": ["LED", "Fire", "Day"]},
    
    
    {"name": "TwiLight Hoops", "url": "https://twilighthoops.eu/", "location": "Ireland", "shipsTo": "World", "hoopType": ["LED"]},
    
    {"name": "Play Juggling", "url": "https://www.playjuggling.com/it/", "location": "Italy", "shipsTo": "World", "hoopType": ["Day"]},
    
    
    {"name": "De Hoepel Winkel", "url": "https://dehoepelwinkel.nl/", "location": "Netherlands", "shipsTo": "Netherlands", "hoopType": ["Day"]},
    
    
    {"name": "Skratarija", "url": "https://www.etsy.com/shop/skratarija", "location": "Slovenia", "shipsTo": "World", "hoopType": ["Day"]},
    
    
    {"name": "Hula Hoop", "url": "https://www.hulahooop.com/shop/", "location": "Switzerland", "shipsTo": "Switzerland", "hoopType": ["Day"]},
    
    
    {"name": "Fire Toys", "url": "https://www.firetoys.co.uk/", "location": "UK", "shipsTo": "World", "hoopType": ["Day", "Fire", "LED"]},
    {"name": "HoopSpin", "url": "https://hoopspin.co.uk/", "location": "UK", "shipsTo": "Europe", "hoopType": ["Day"]},
    {"name": "Hula Hoopers", "url": "http://hulalahoopers.com/", "location": "UK", "shipsTo": "World", "hoopType": ["Day", "Fire"]},
    {"name": "Jennie Brennen", "url": "https://www.jenniebrennen.com/", "location": "UK", "shipsTo": "World", "hoopType": ["Day"]},
    {"name": "One Stop Hoop Shop", "url": "https://onestophoopshop.co.uk/", "location": "UK", "shipsTo": "World", "hoopType": ["Day"]},
    {"name": "Tooka Hoops", "url": "https://www.etsy.com/uk/shop/TookaHoops", "location": "UK", "shipsTo": "World", "hoopType": ["Day"]},
    {"name": "Ulaoops", "url": "https://ulaoops.co.uk/", "location": "UK", "shipsTo": "Europe", "hoopType": ["LED"]},
]
